…
    ## [1] "Africa"   "Asia"     "Europe"   "Americas"

**We can also re-order by the value of other variables in the data as
life expectanc or gdp.**

``` r
Drop_Oceania_1980 <- Drop_Oceania %>% 
  filter(year > 1979) %>% 
  group_by(continent, year) %>% 
  mutate(mediangdp = median(gdpPercap))

Drop_Oceania_1980
```

    ## # A tibble: 840 x 7
    ## # Groups:   continent, year [24]
    ##    country     continent  year lifeExp      pop gdpPercap mediangdp
    ##    <fct>       <fct>     <int>   <dbl>    <int>     <dbl>     <dbl>
    ##  1 Afghanistan Asia       1982    39.9 12881816      978.     4107.
    ##  2 Afghanistan Asia       1987    40.8 13867957      852.     4106.
    ##  3 Afghanistan Asia       1992    41.7 16317921      649.     3726.
    ##  4 Afghanistan Asia       1997    41.8 22227415      635.     3645.
    ##  5 Afghanistan Asia       2002    42.1 25268405      727.     4091.
    ##  6 Afghanistan Asia       2007    43.8 31889923      975.     4471.
    ##  7 Albania     Europe     1982    70.4  2780097     3631.    15323.
    ##  8 Albania     Europe     1987    72    3075321     3739.    16215.
    ##  9 Albania     Europe     1992    71.6  3326498     2497.    17550.
    ## 10 Albania     Europe     1997    73.0  3428038     3193.    19596.
    ## # ... with 830 more rows
…
